coverage run    --branch TestDiplomacy.py >  TestDiplomacy.tmp 2>&1
coverage report -m                      >> TestDiplomacy.tmp
cat TestDiplomacy.tmp
.........
----------------------------------------------------------------------
Ran 9 tests in 0.001s

OK
Name               Stmts   Miss Branch BrPart  Cover   Missing
--------------------------------------------------------------
Diplomacy.py          50      0     34      1    99%   47->38
TestDiplomacy.py      37      0      0      0   100%
--------------------------------------------------------------
TOTAL                 87      0     34      1    99%
