.............
----------------------------------------------------------------------
Ran 13 tests in 0.005s

OK
Name               Stmts   Miss Branch BrPart  Cover   Missing
--------------------------------------------------------------
Diplomacy.py          92      0     64      0   100%
TestDiplomacy.py      64      0      2      0   100%
--------------------------------------------------------------
TOTAL                156      0     66      0   100%
